Name,Code,Barcode Symbology,Brand,Category Code,Unit Code,Sale Unit Code, Purchase Unit Code,Cost,Price,Alert Quantity, Tax Rate Name,Tax Method,Image,Subcategory Code,Product Variants Separated by |,Custom Field 1,Custom Field 2,Custom Field 3,Custom Field 4,Custom Field 5,Custom Field 6
Chest Dropping Floral Net Gown - Purple ,,code129,KiddiFits,KF-101,Pc,Pc,Pc,42,167,2,No Tax,Inclusive,1002.png,,,,,,,,
Chest Dropping Lace patch Gown with Sequins - Marron,,code130,KiddiFits,KF-101,Pc,Pc,Pc,40,161,2,No Tax,Inclusive,1003.png,,,,,,,,
Chest Dropping Lace patch Gown with Sequins - Purple,,code131,KiddiFits,KF-101,Pc,Pc,Pc,40,161,2,No Tax,Inclusive,1003purple.png,,,,,,,,
Chest Dropping Floral Gown with Pearl,,code132,KiddiFits,KF-101,Pc,Pc,Pc,40,161,2,No Tax,Inclusive,1004.png,,,,,,,,
Chest Floral Gown with naken soulders - Purple  ,,code133,KiddiFits,KF-101,Pc,Pc,Pc,40,161,2,No Tax,Inclusive,1005Purple.png,,,,,,,,
Chest Floral Gown with naken soulders  - Blue,,code134,KiddiFits,KF-101,Pc,Pc,Pc,40,161,2,No Tax,Inclusive,1005Navy.png,,,,,,,,
Printed Net Gown with Flowers ,,code135,KiddiFits,KF-101,Pc,Pc,Pc,48,191,2,No Tax,Inclusive,1006.png,,,,,,,,
Chest Dropping lace patch gown with Cape - Pink,,code136,KiddiFits,KF-101,Pc,Pc,Pc,41,166,2,No Tax,Inclusive,1007Pink.png,,,,,,,,
Chest Dropping lace patch gown with Cape - White ,,code137,KiddiFits,KF-101,Pc,Pc,Pc,41,166,2,No Tax,Inclusive,1007White.png,,,,,,,,
Tinker bell own ,,code138,KiddiFits,KF-101,Pc,Pc,Pc,41,166,2,No Tax,Inclusive,1008.png,,,,,,,,
Embelished Cest Gown with pearls ,,code139,KiddiFits,KF-101,Pc,Pc,Pc,40,161,2,No Tax,Inclusive,1009.png,,,,,,,,
Embroidered Net Gowns - Purple,,code140,KiddiFits,KF-101,Pc,Pc,Pc,39,157,2,No Tax,Inclusive,1010.png,,,,,,,,
Embroidered Net Gowns - Blue,,code141,KiddiFits,KF-101,Pc,Pc,Pc,39,157,2,No Tax,Inclusive,1010Beig.png,,,,,,,,
Dropping Ribbon Flower Net Gowns - Blue ,,code142,KiddiFits,KF-101,Pc,Pc,Pc,39,157,2,No Tax,Inclusive,1011Blue.png,,,,,,,,
Dropping Ribbon Flower Net Gowns - Champaign ,,code143,KiddiFits,KF-101,Pc,Pc,Pc,39,157,2,No Tax,Inclusive,1011champaign.png,,,,,,,,
Dropping Ribbon Flower Net Gowns - Pink,,code144,KiddiFits,KF-101,Pc,Pc,Pc,39,157,2,No Tax,Inclusive,1011Pink.png,,,,,,,,
Dropping Ribbon Flower Net Gowns - Red,,code145,KiddiFits,KF-101,Pc,Pc,Pc,39,157,2,No Tax,Inclusive,1011Red.png,,,,,,,,
Printed Chifoon with flowers ,,code146,KiddiFits,KF-101,Pc,Pc,Pc,38,151,2,No Tax,Inclusive,1012,,,,,,,,
Ebelished chest gown with stone belt - Pink ,,code147,KiddiFits,KF-101,Pc,Pc,Pc,33,132,2,No Tax,Inclusive,1013Pink.png,,,,,,,,
Ebelished chest gown with stone belt - Champange ,,code148,KiddiFits,KF-101,Pc,Pc,Pc,33,132,2,No Tax,Inclusive,1013.png,,,,,,,,
Printed Block Chiffon gown,,code149,KiddiFits,KF-101,Pc,Pc,Pc,38,151,2,No Tax,Inclusive,1014.png,,,,,,,,
Half Sequnce layered gown,,code150,KiddiFits,KF-101,Pc,Pc,Pc,38,151,2,No Tax,Inclusive,1015.png,,,,,,,,
Net Gown with Lace Patch Embelishment    - Red,,code151,KiddiFits,KF-101,Pc,Pc,Pc,32,128,2,No Tax,Inclusive,1016Red.png,,,,,,,,
Net Gown with Lace Patch Embelishment    - Blue,,code152,KiddiFits,KF-101,Pc,Pc,Pc,32,128,2,No Tax,Inclusive,1016Blue.png,,,,,,,,
Net Gown with Lace Patch Embelishment    - Pink,,code153,KiddiFits,KF-101,Pc,Pc,Pc,32,128,2,No Tax,Inclusive,1016Pink.png,,,,,,,,
Gliiter Chest Gown with Long Back ,,code154,KiddiFits,KF-101,Pc,Pc,Pc,36,142,2,No Tax,Inclusive,1017.png,,,,,,,,
Lace Chest Gown with Long back and stone waist line - Blue,,code155,KiddiFits,KF-101,Pc,Pc,Pc,32,128,2,No Tax,Inclusive,1018.png,,,,,,,,
Lace Chest Gown with Long back and stone waist line - Red,,code156,KiddiFits,KF-101,Pc,Pc,Pc,32,128,2,No Tax,Inclusive,1018.png,,,,,,,,
Lace Chest Gown with Long backm Ribbon edging - Hot Pink,,code157,KiddiFits,KF-101,Pc,Pc,Pc,36,142,2,No Tax,Inclusive,1019.png,,,,,,,,
Lace Chest Gown with Long backm Ribbon edging - White,,code158,KiddiFits,KF-101,Pc,Pc,Pc,36,142,2,No Tax,Inclusive,1019.png,,,,,,,,
Pearl Embelished Gown with Front Now - Blue ,,code160,KiddiFits,KF-101,Pc,Pc,Pc,34,136,2,No Tax,Inclusive,1021Blue.png,,,,,,,,
Pearl Embelished Gown with Front Now - Pink ,,code161,KiddiFits,KF-101,Pc,Pc,Pc,34,136,2,No Tax,Inclusive,1021Pink.png,,,,,,,,
Pearl Embelished Gown with Front Now - Red ,,code162,KiddiFits,KF-101,Pc,Pc,Pc,34,136,2,No Tax,Inclusive,1021Red.png,,,,,,,,
Lace Embelishment and Ribbon flayered Gown - Blue,,code163,KiddiFits,KF-101,Pc,Pc,Pc,32,128,2,No Tax,Inclusive,1022Blue.png,,,,,,,,
Lace Embelishment and Ribbon flayered Gown - Green,,code164,KiddiFits,KF-101,Pc,Pc,Pc,32,128,2,No Tax,Inclusive,1022Green.png,,,,,,,,
Lace Chest Gown with Ribbon knot and edging - Creem,,code165,KiddiFits,KF-101,Pc,Pc,Pc,32,128,2,No Tax,Inclusive,1023Creem.png,,,,,,,,
Lace Chest Gown with Ribbon knot and edging - Marroon,,code166,KiddiFits,KF-101,Pc,Pc,Pc,32,128,2,No Tax,Inclusive,1023Maroon.png,,,,,,,,
Stone Chest gown with 3 ribbon edging  - Blue,,code167,KiddiFits,KF-101,Pc,Pc,Pc,36,142,2,No Tax,Inclusive,1024.png,,,,,,,,
Stone Chest gown with 3 ribbon edging  - Red,,code168,KiddiFits,KF-101,Pc,Pc,Pc,36,142,2,No Tax,Inclusive,1024.png,,,,,,,,
Block plate gown with Sequin lace - Purple,,code169,KiddiFits,KF-101,Pc,Pc,Pc,44,176,2,No Tax,Inclusive,1025.png,,,,,,,,
Block plate gown with Sequin lace - Blue,,code170,KiddiFits,KF-101,Pc,Pc,Pc,44,176,2,No Tax,Inclusive,1025.png,,,,,,,,
Elsa Gown with Small cape ,,code171,KiddiFits,KF-102,Pc,Pc,Pc,21,83,2,No Tax,Inclusive,1026.png,,,,,,,,
Repuzel Satin Gown,,code172,KiddiFits,KF-102,Pc,Pc,Pc,21,83,2,No Tax,Inclusive,1027.png,,,,,,,,
Anna gown with Cape,,code173,KiddiFits,KF-102,Pc,Pc,Pc,23,91,2,No Tax,Inclusive,1028.png,,,,,,,,
Elsa Gown with long cape ,,code174,KiddiFits,KF-102,Pc,Pc,Pc,22,86,2,No Tax,Inclusive,1029.png,,,,,,,,
Auroura Sleeping Beauty Gown,,code175,KiddiFits,KF-102,Pc,Pc,Pc,28,113,2,No Tax,Inclusive,1030.png,,,,,,,,
Little Poney dress with Ribbon lines ,,code176,KiddiFits,KF-102,Pc,Pc,Pc,17,68,2,No Tax,Inclusive,1031.png,,,,,,,,
Little Poney dress with Chiffon layers ,,code177,KiddiFits,KF-102,Pc,Pc,Pc,17,68,2,No Tax,Inclusive,1032.png,,,,,,,,
