Code,Quantity,Variant
KF-FRK-1040,5,
KF-FRK-1041,6,
KF-FRK-1042,1,
KF-FRK-1043,0,
KF-FRK-1044,2,
KF-FRK-1046,0,
KF-FRK-1047,0,
KF-FRK-1048,0,
KF-FRK-1049,0,
KF-FRK-1050,1,
11534523,0,
11534521,0,
11534529,0,
11534525,0,
11534519,1,
11534520,0,
11534522,0,
11534555,0,
11534524,0,
11534548,0,
11534516,0,
11534518,0,
11534517,1,
11534530,0,
11534549,0,
11534526,2,
11534556,2,
11534527,1,
11534536,0,
11534538,0,
11534539,0,
11534546,0,
11534557,0,
17135465,0,
11534551,0,
11534552,0,
11534553,1,
11534543,0,
11534550,0,
11534544,3,
11534535,3,
11534542,0,
11534533,0,
11534545,0,
11534532,1,
11534541,3,
11534540,0,
11534537,0,
101-1065,0,
101-1066,3,
101-1067,0,
KF-FRK-1056,0,
KF-FRK-1053,0,
KF-FRK-1057,0,
KF-FRK-1058,1,
KF-FRK-1059,1,
KF-FRK-1060,4,
KF-FRK-1061,1,
KF-FRK-1062,4,
KF-FRK-1063,0,
KF-FRK-1064,0,
101-1090,0,
101-1116,6,
101-1115,4,
101-1118,5,
101-1113,6,
101-1111,3,
101-1114,5,
101-1112,3,
101-1119,2,
101-1122,5,
101-1126,5,
101-1124,6,
101-1125,4,
