"Product Code","Product Name",Variant,Expected,Counted
101-1066,"Pink Flower Chest",,4.0000,
101-1067,"Red Flower Pearl Chest",,1.0000,
101-1114,"top Floral, Naked Shoulder - Peach",,0.0000,
11534516,"Chest Dropping Floral Net Gown - Skin",,11.0000,
11534517,"Chest Dropping Floral Net Gown - Purple",,7.0000,
11534518,"Chest Dropping Lace patch Gown with Sequins - Marron",,8.0000,
11534519,"Chest Dropping Lace patch Gown with Sequins - Purple",,7.0000,
11534520,"Chest Dropping Floral Gown with Pearl - Peach",,11.0000,
11534521,"Chest Floral Gown with naken soulders - Purple",,8.0000,
11534522,"Chest Floral Gown with naken soulders  - Blue",,11.0000,
11534523,"Vintage Printed Chiffon, Self Block",,8.0000,
11534524,"Dropping lace patch, Cape - Pink",,10.0000,
11534525,"top Dropping lace patch, Cape- White",,6.0000,
11534526,"Tinker bell Satin Gown",,9.0000,
11534527,"Embelished Chest Gown with pearls",,9.0000,
11534528,"Embroidered Net Gowns - Purple",,6.0000,
11534529,"Embroidered Net Gowns - Blue",,8.0000,
11534530,"Dropping Ribbon Flower Net Gowns - Blue",,11.0000,
11534531,"Dropping Ribbon Flower- skin",,0.0000,
11534532,"Dropping Ribbon Flower - Pink",,6.0000,
11534533,"Dropping Ribbon Flower - Red",,12.0000,
11534535,"Embellished, stone belt- Pink",,6.0000,
11534536,"Embellished top, stone belt - skin",,9.0000,
11534537,"AutumnTree with Chiffon Flowers",,6.0000,
11534538,"Half layered Sequin gown",,8.0000,
11534539,"lace patch Flower,pearls - Red",,11.0000,
11534540,"lace patch Flower ,pearls - blue",,6.0000,
11534541,"lace patch Flower ,pearls - pink",,12.0000,
11534542,"Glitter Chest, L.Back - Blue",,6.0000,
11534545,"Toddler, Lace, L.Back Ribbon- H.Pink",,5.0000,
11534546,"Toddler L.back, Rbn, White",,8.0000,
11534547,"Thread Embroidered, pearl brooj - Blue",,0.0000,
11534548,"Cut Glitter Chest with Front Bow - Pink",,6.0000,
11534549,"Cut Glitter Chest with Front Bow - RED",,10.0000,
11534555,"beads chest,3 ribbon edging, Red",,8.0000,
11534556,"Block plate, Sequin patch- purple",,19.0000,
11534557,"Block plate, Sequin patch - Blue",,7.0000,
17135465,"Polka Printed Satin - Blue",,6.0000,
17135467,"Lace Flower Patch & pearls - Beige",,0.0000,
17135468,"Thread Embroidered, Pearl Brooj - Blue",,0.0000,
KF-FRK-1040,"RED PARTY DRESS W/ BEADINGS AT CHEST AND RIBBON",,3.0000,
KF-FRK-1041,"GLITTER Chest WITH BOW - Pink",,6.0000,
KF-FRK-1042,"GLITTER Chest WITH BOW - Blue",,5.0000,
KF-FRK-1043,"GLITTER Chest WITH BOW - Beige",,2.0000,
KF-FRK-1044,"RED PARTY DRESS WITH SEQUENCE AND FLOWER",,2.0000,
KF-FRK-1053,"Lace Flower, Stone Wline - Hpink",,5.0000,
KF-FRK-1054,"Lace Flower Stone Wline - Red",,1.0000,
KF-FRK-1056,"White Frock with Pink big Flowers at chest",,0.0000,
KF-FRK-1058,"Jacuard Printed Princess Gown with pearl waist",,3.0000,
KF-FRK-1059,"Printed Bird Gown",,1.0000,
KF-FRK-1060,"Naked Chest Chiffon - Pink",,6.0000,
KF-FRK-1061,"Layered Chifoon Gown with chest patch - white",,3.0000,
KF-FRK-1062,"Naked Chest Chiffon - Skin",,6.0000,
KF-FRK-1063,"Half show Lace Chest with beading, seqins - White",,2.0000,
KF-FRK-1064,"Half show Lace Chest with beading, seqins - Pink",,2.0000,
KP-GSPD015,"Vintage Printed Summer - Peach",,0.0000,
KP-GSPD016,"Vintage Printed Summer - Pink",,0.0000,
KP-GSPD017,"Vintage Printed Summer - Hot Pink",,0.0000,
