Name,Code,Barcode Symbology,Brand,Category Code,Unit Code,Sale Unit Code, Purchase Unit Code,Cost,Price,Alert Quantity, Tax Rate Name,Tax Method,Image,Subcategory Code,Product Variants Separated by |,Custom Field 1,Custom Field 2,Custom Field 3,Custom Field 4,Custom Field 5,Custom Field 6
Ajrak - 30002,301-30002,code128,Senorita Trends,ST-301,pc,pc,pc,15,45,2,No Tax,,,,,,,,,,
Mustard Base White Square - 30003,301-30003,code128,Senorita Trends,ST-301,pc,pc,pc,15,45,2,No Tax,,,,,,,,,,
Black & White Stripesp - 30004,301-30004,code128,Senorita Trends,ST-301,pc,pc,pc,15,45,2,No Tax,,,,,,,,,,
Sea Blue Base Red Flowers - 30006,301-30006,code128,Senorita Trends,ST-301,pc,pc,pc,15,45,2,No Tax,,,,,,,,,,
Grey Base/Yellow White-30007,301-30007,code128,Senorita Trends,ST-301,pc,pc,pc,15,45,2,No Tax,,,,,,,,,,
Black Dotted -30008,301-30008,code128,Senorita Trends,ST-301,pc,pc,pc,15,45,2,No Tax,,,,,,,,,,
Solid Brown/White Lining- 30009 ,301-30009,code128,Senorita Trends,ST-301,pc,pc,pc,15,45,2,No Tax,,,,,,,,,,
White Base Flowers- 30010,301-30010,code128,Senorita Trends,ST-301,pc,pc,pc,15,45,2,No Tax,,,,,,,,,,
peach/Grey Square- 30011,301-30011,code128,Senorita Trends,ST-301,pc,pc,pc,15,45,2,No Tax,,,,,,,,,,
White Base/Pink Peach- 30012,301-30012,code128,Senorita Trends,ST-301,pc,pc,pc,15,45,2,No Tax,,,,,,,,,,
White Base/Blue Grey-30013,301-30013,code128,Senorita Trends,ST-301,pc,pc,pc,15,45,2,No Tax,,,,,,,,,,
Pink Border/Flowers- 30015,301-30015,code128,Senorita Trends,ST-301,pc,pc,pc,15,45,2,No Tax,,,,,,,,,,
Purple Border Pink Flowers- 30016,301-30016,code128,Senorita Trends,ST-301,pc,pc,pc,15,45,2,No Tax,,,,,,,,,,
Black Border/Peach and Yellow-30017,301-30017,code128,Senorita Trends,ST-301,pc,pc,pc,15,45,2,No Tax,,,,,,,,,,
Navy Blue Border- 30018,301-30018,code128,Senorita Trends,ST-301,pc,pc,pc,15,45,2,No Tax,,,,,,,,,,
Blue Circle Stars- 30019,301-30019,code128,Senorita Trends,ST-301,pc,pc,pc,15,45,2,No Tax,,,,,,,,,,
Peach Base Red Small Flowers- 30021 ,301-30021,code128,Senorita Trends,ST-301,pc,pc,pc,15,45,2,No Tax,,,,,,,,,,
 Peach Blue Stripes-30023 ,301-30023,code128,Senorita Trends,ST-301,pc,pc,pc,15,45,2,No Tax,,,,,,,,,,
Blue Stripes/ White Flowers-30024,301-30024,code128,Senorita Trends,ST-301,pc,pc,pc,15,45,2,No Tax,,,,,,,,,,
Peacock- 30025,301-30025,code128,Senorita Trends,ST-301,pc,pc,pc,15,45,2,No Tax,,,,,,,,,,
Stripes Border- 30027,301-30027,code128,Senorita Trends,ST-301,pc,pc,pc,15,45,2,No Tax,,,,,,,,,,
Yellow Flowers/Circle-30028,301-30028,code128,Senorita Trends,ST-301,pc,pc,pc,15,45,2,No Tax,,,,,,,,,,
Blood Red/ Black&White Stripe-30030,301-30030,code128,Senorita Trends,ST-301,pc,pc,pc,15,45,2,No Tax,,,,,,,,,,
Golden Flowers Border- 30031,301-30031,code128,Senorita Trends,ST-301,pc,pc,pc,15,45,2,No Tax,,,,,,,,,,
Blue Border/White Flowers-30032,301-30032,code128,Senorita Trends,ST-301,pc,pc,pc,15,45,2,No Tax,,,,,,,,,,
Green Base Red Flowers-30033,301-30033,code128,Senorita Trends,ST-301,pc,pc,pc,15,45,2,No Tax,,,,,,,,,,
Solid Peach/White Lining-30034,301-30034,code128,Senorita Trends,ST-301,pc,pc,pc,15,45,2,No Tax,,,,,,,,,,
"White Base/ Geen,Grey-30035",301-30035,code128,Senorita Trends,ST-301,pc,pc,pc,15,45,2,No Tax,,,,,,,,,,
Blue Borders White Flowers-30036,301-30036,code128,Senorita Trends,ST-301,pc,pc,pc,15,45,2,No Tax,,,,,,,,,,
Multi Lining Bordes/Blue-30037,301-30037,code128,Senorita Trends,ST-301,pc,pc,pc,15,45,2,No Tax,,,,,,,,,,
Pink & Blue Flowers-30039,301-30039,code128,Senorita Trends,ST-301,pc,pc,pc,15,45,2,No Tax,,,,,,,,,,
Black & White Shapes-30041,301-30041,code128,Senorita Trends,ST-301,pc,pc,pc,15,45,2,No Tax,,,,,,,,,,
Orange Sliced Flowers-30043,301-30043,code128,Senorita Trends,ST-301,pc,pc,pc,15,45,2,No Tax,,,,,,,,,,
Blue Circle/White Triangels-30044,301-30044,code128,Senorita Trends,ST-301,pc,pc,pc,15,45,2,No Tax,,,,,,,,,,
Flowers Red White Blue-30045,301-30045,code128,Senorita Trends,ST-301,pc,pc,pc,15,45,2,No Tax,,,,,,,,,,
Small flowers/ Red Lines- 30046,301-30046,code128,Senorita Trends,ST-301,pc,pc,pc,15,45,2,No Tax,,,,,,,,,,
Orange Base Blue Flowers-30047,301-30047,code128,Senorita Trends,ST-301,pc,pc,pc,15,45,2,No Tax,,,,,,,,,,
Grey Waves- 30048,301-30048,code128,Senorita Trends,ST-301,pc,pc,pc,15,45,2,No Tax,,,,,,,,,,
Black & White Stripes-30049,301-30049,code128,Senorita Trends,ST-301,pc,pc,pc,15,45,2,No Tax,,,,,,,,,,
Blue Square Flowers-30051,301-30051,code128,Senorita Trends,ST-301,pc,pc,pc,15,45,2,No Tax,,,,,,,,,,
"white Base/ Purple,Grey-30053",301-30053,code128,Senorita Trends,ST-301,pc,pc,pc,15,45,2,No Tax,,,,,,,,,,
Blue Flowers Pattern-30055,301-30055,code128,Senorita Trends,ST-301,pc,pc,pc,15,45,2,No Tax,,,,,,,,,,
Double Prnt Red/Blue-30056,301-30056,code128,Senorita Trends,ST-301,pc,pc,pc,25,65,2,No Tax,,,,,,,,,,
Peach Base/Dotted Peach-30065,302-30065,code128,Senorita Trends,ST-302,pc,pc,pc,25,65,2,No Tax,,,,,,,,,,
Lime Base/ Peach Dotted-30067,302-30067,code128,Senorita Trends,ST-302,pc,pc,pc,25,65,2,No Tax,,,,,,,,,,
Light Golden Square/ Silver Pearl-30070,302-30070,code128,Senorita Trends,ST-302,pc,pc,pc,25,65,2,No Tax,,,,,,,,,,
Light Pink Square/Silver Pearl-30071,302-30071,code128,Senorita Trends,ST-302,pc,pc,pc,25,65,2,No Tax,,,,,,,,,,
Purple Base/Peach Dotted-30074,302-30074,code128,Senorita Trends,ST-302,pc,pc,pc,25,65,2,No Tax,,,,,,,,,,
Peach Base/3 Hearts-30075,302-30075,code128,Senorita Trends,ST-302,pc,pc,pc,25,65,2,No Tax,,,,,,,,,,
Pink Base/Peach Dotted-30076,302-30076,code128,Senorita Trends,ST-302,pc,pc,pc,25,65,2,No Tax,,,,,,,,,,
Lime Base/3 Hearts-30077,302-30077,code128,Senorita Trends,ST-302,pc,pc,pc,25,65,2,No Tax,,,,,,,,,,
Light Grey Square/ Pearls-30078,302-30078,code128,Senorita Trends,ST-302,pc,pc,pc,25,65,2,No Tax,,,,,,,,,,
Green Base/ 3 Hearts-30079,302-30079,code128,Senorita Trends,ST-302,pc,pc,pc,25,65,2,No Tax,,,,,,,,,,
Light Pink Dotted.wave-30080,302-30080,code128,Senorita Trends,ST-302,pc,pc,pc,25,65,2,No Tax,,,,,,,,,,
Peach Dotted Wave-30081,302-30081,code128,Senorita Trends,ST-302,pc,pc,pc,25,65,2,No Tax,,,,,,,,,,
Greyish Green Circle/ Net Border-300084,302-30084,code128,Senorita Trends,ST-302,pc,pc,pc,25,65,2,No Tax,,,,,,,,,,
Red/Multi Color Circle,304-30115,code128,Senorita Trends,ST-304,pc,pc,pc,15,45,2,No Tax,,,,,,,,,,
Pink/Multi Color Cirlce,304-30116,code128,Senorita Trends,ST-304,pc,pc,pc,15,45,2,No Tax,,,,,,,,,,
Blue/Pink Blue Flowers-30117,304-30117,code128,Senorita Trends,ST-304,pc,pc,pc,15,45,2,No Tax,,,,,,,,,,
Dark Maroon/Net Blue Border-30118,304-30118,code128,Senorita Trends,ST-304,pc,pc,pc,15,45,2,No Tax,,,,,,,,,,
Yellow/Net Blue Borde-30119,304-30119,code128,Senorita Trends,ST-304,pc,pc,pc,15,45,2,No Tax,,,,,,,,,,
Green/ Multi Color Circles-30120,304-30120,code128,Senorita Trends,ST-304,pc,pc,pc,15,45,2,No Tax,,,,,,,,,,
Solid Pink/Blue Flowers-30121,304-30121,code128,Senorita Trends,ST-304,pc,pc,pc,15,45,2,No Tax,,,,,,,,,,
Grey/Net Green Flower-30122,304-30122,code128,Senorita Trends,ST-304,pc,pc,pc,15,45,2,No Tax,,,,,,,,,,
Pink/Net Green Flower-30123,304-30123,code128,Senorita Trends,ST-304,pc,pc,pc,15,45,2,No Tax,,,,,,,,,,
Peach/Net Green Flower-30124,304-30124,code128,Senorita Trends,ST-304,pc,pc,pc,15,45,2,No Tax,,,,,,,,,,
Aqua Dark/Net Aqua Flowers-30125,304-30125,code128,Senorita Trends,ST-304,pc,pc,pc,15,45,2,No Tax,,,,,,,,,,
Light Purple/Net Aqua Flowers-30126,304-30126,code128,Senorita Trends,ST-304,pc,pc,pc,15,45,2,No Tax,,,,,,,,,,
Pink/ Black Flowers-30127,304-30127,code128,Senorita Trends,ST-304,pc,pc,pc,15,45,2,No Tax,,,,,,,,,,
Purple/White Flower-30128,304-30128,code128,Senorita Trends,ST-304,pc,pc,pc,15,45,2,No Tax,,,,,,,,,,
Baby Pink/White Flower-30129,304-30129,code128,Senorita Trends,ST-304,pc,pc,pc,15,45,2,No Tax,,,,,,,,,,
Brown-30057,305-30057,code128,Senorita Trends,ST-305,pc,pc,pc,15,45,2,No Tax,,,,,,,,,,
Light Peach-300358,305-30058,code128,Senorita Trends,ST-305,pc,pc,pc,15,45,2,No Tax,,,,,,,,,,
Dark Blue-30059,305-30059,code128,Senorita Trends,ST-305,pc,pc,pc,15,45,2,No Tax,,,,,,,,,,
Camel-30060,305-30060,code128,Senorita Trends,ST-305,pc,pc,pc,15,45,2,No Tax,,,,,,,,,,
Sky Blue-30062,305-30062,code128,Senorita Trends,ST-305,pc,pc,pc,15,45,2,No Tax,,,,,,,,,,
Solid Dark Grey,306-30130,code128,Senorita Trends,ST-306,pc,pc,pc,7,20,2,No Tax,,,,,,,,,,
Solid Black,306-30131,code128,Senorita Trends,ST-306,pc,pc,pc,7,20,2,No Tax,,,,,,,,,,
Solid Blue,306-30132,code128,Senorita Trends,ST-306,pc,pc,pc,7,20,2,No Tax,,,,,,,,,,
Solid Cream,306-30133,code128,Senorita Trends,ST-306,pc,pc,pc,7,20,2,No Tax,,,,,,,,,,
Solid Dark Brown,306-30134,code128,Senorita Trends,ST-306,pc,pc,pc,7,20,2,No Tax,,,,,,,,,,
Solid Grey,306-30135,code128,Senorita Trends,ST-306,pc,pc,pc,7,20,2,No Tax,,,,,,,,,,
Solid Camel,306-30136,code128,Senorita Trends,ST-306,pc,pc,pc,7,20,2,No Tax,,,,,,,,,,
Solid Maroon,306-30137,code128,Senorita Trends,ST-306,pc,pc,pc,7,20,2,No Tax,,,,,,,,,,
Solid Navy Blue,306-30138,code128,Senorita Trends,ST-306,pc,pc,pc,7,20,2,No Tax,,,,,,,,,,
Solid Baby Pink,306-30139,code128,Senorita Trends,ST-306,pc,pc,pc,7,20,2,No Tax,,,,,,,,,,
Solid Royal Blue,306-30140,code128,Senorita Trends,ST-306,pc,pc,pc,7,20,2,No Tax,,,,,,,,,,
Solid White,306-30141,code128,Senorita Trends,ST-306,pc,pc,pc,7,20,2,No Tax,,,,,,,,,,
Maroon/Yellow Blue Branch-30109,311-30109,code128,Senorita Trends,ST-311,pc,pc,pc,15,45,2,No Tax,,,,,,,,,,
Skin/Green Purple Branch-30110,311-30110,code128,Senorita Trends,ST-311,pc,pc,pc,15,45,2,No Tax,,,,,,,,,,
Blue/Yellow Red Branch-30111,311-30111,code128,Senorita Trends,ST-311,pc,pc,pc,15,45,2,No Tax,,,,,,,,,,
Pink/White Cheeta Print-30112,311-30112,code128,Senorita Trends,ST-311,pc,pc,pc,15,45,2,No Tax,,,,,,,,,,
Black/Yellow Pink Branch-30113,311-30113,code128,Senorita Trends,ST-311,pc,pc,pc,15,45,2,No Tax,,,,,,,,,,
Red/Yellow Green Branch-30114,311-30114,code128,Senorita Trends,ST-311,pc,pc,pc,15,45,2,No Tax,,,,,,,,,,
Grey/Pink Butterflies-30089,312-30089,code128,Senorita Trends,ST-312,pc,pc,pc,15,45,2,No Tax,,,,,,,,,,
White/Pink Butterflies Flowers-30090,312-30090,code128,Senorita Trends,ST-312,pc,pc,pc,15,45,2,No Tax,,,,,,,,,,
Purple Birds Branches-30091,312-30091,code128,Senorita Trends,ST-312,pc,pc,pc,15,45,2,No Tax,,,,,,,,,,
Aqua Printed-30092,312-30092,code128,Senorita Trends,ST-312,pc,pc,pc,15,45,2,No Tax,,,,,,,,,,
White Music Notes-30093,312-30093,code128,Senorita Trends,ST-312,pc,pc,pc,15,45,2,No Tax,,,,,,,,,,
Light Dark Green/Purple Flowers-30094,312-30094,code128,Senorita Trends,ST-312,pc,pc,pc,15,45,2,No Tax,,,,,,,,,,
Green City-30095,312-30095,code128,Senorita Trends,ST-312,pc,pc,pc,15,45,2,No Tax,,,,,,,,,,
Light Dark Pink/Orange Flowers-30096,312-30096,code128,Senorita Trends,ST-312,pc,pc,pc,15,45,2,No Tax,,,,,,,,,,
Pink/Lime Butterflies-30097,312-30097,code128,Senorita Trends,ST-312,pc,pc,pc,15,45,2,No Tax,,,,,,,,,,
Peach/ Lime Butteflies-30098,312-30098,code128,Senorita Trends,ST-312,pc,pc,pc,15,45,2,No Tax,,,,,,,,,,
Peach/Black Print-30099,312-30099,code128,Senorita Trends,ST-312,pc,pc,pc,15,45,2,No Tax,,,,,,,,,,
AquaBlue/Golden Leave-30100,312-30100,code128,Senorita Trends,ST-312,pc,pc,pc,15,45,2,No Tax,,,,,,,,,,
Aqua Green/Blue Flowers-30101,312-30101,code128,Senorita Trends,ST-312,pc,pc,pc,15,45,2,No Tax,,,,,,,,,,
Blue City-30102,312-30102,code128,Senorita Trends,ST-312,pc,pc,pc,15,45,2,No Tax,,,,,,,,,,
Aqua White/Blue Pink Flowers-30103,312-30103,code128,Senorita Trends,ST-312,pc,pc,pc,15,45,2,No Tax,,,,,,,,,,
Blue Printed-30104,312-30104,code128,Senorita Trends,ST-312,pc,pc,pc,15,45,2,No Tax,,,,,,,,,,
Yellow Red RosesBlue Border-30105,312-30105,code128,Senorita Trends,ST-312,pc,pc,pc,15,45,2,No Tax,,,,,,,,,,
3Shade/Yellow Peach Purple-30106,312-30106,code128,Senorita Trends,ST-312,pc,pc,pc,15,45,2,No Tax,,,,,,,,,,
Pink City-30107,312-30107,code128,Senorita Trends,ST-312,pc,pc,pc,15,45,2,No Tax,,,,,,,,,,
Peach Music Notes-30108,312-30108,code128,Senorita Trends,ST-312,pc,pc,pc,15,45,2,No Tax,,,,,,,,,,
