Name,Code,Barcode Symbology,Brand,Category Code,Unit Code,Sale Unit Code, Purchase Unit Code,Cost,Price,Alert Quantity, Tax Rate Name,Tax Method,Image,Subcategory Code,Product Variants Separated by |,Custom Field 1,Custom Field 2,Custom Field 3,Custom Field 4,Custom Field 5,Custom Field 6
Princess Amber Gown with Pearls and Flowers ,101-1120,code128,Kiddi Fits,KF-101,pc,pc,pc,15,195,12,No Tax,,101-1120,,,,,,,,
Princess Florida Dress with Flower Belt ,101-1121,code128,Kiddi Fits,KF-102,pc,pc,pc,15,129,10,No Tax,,101-1121,,,,,,,,
Princess Amber Gown with Pearls and Flowers ,101-1122,code128,Kiddi Fits,KF-103,pc,pc,pc,15,195,12,No Tax,,101-1122,,,,,,,,
Princess Claire Gown with Long Cape,101-1123,code128,Kiddi Fits,KF-104,pc,pc,pc,15,179,12,No Tax,,101-1123,,,,,,,,
Princess Claire Gown with Long Cape,101-1124,code128,Kiddi Fits,KF-105,pc,pc,pc,15,179,12,No Tax,,101-1124,,,,,,,,
Princess Florida Dress with Flower Belt ,101-1125,code128,Kiddi Fits,KF-106,pc,pc,pc,15,129,10,No Tax,,101-1125,,,,,,,,
Princess Amber Gown with Pearls and Flowers ,101-1126,code128,Kiddi Fits,KF-107,pc,pc,pc,15,195,12,No Tax,,101-1126,,,,,,,,
