Name,Code,Barcode Symbology,Brand,Category Code,Unit Code,Sale Unit Code, Purchase Unit Code,Cost,Price,Alert Quantity, Tax Rate Name,Tax Method,Image,Subcategory Code,Product Variants Separated by |,Custom Field 1,Custom Field 2,Custom Field 3,Custom Field 4,Custom Field 5,Custom Field 6
Black/Golden Heart-30131,302-30131,code128,Senorita Trends,ST-302,pc,pc,pc,25,65,2,No Tax,,,,,,,,,,
Grey/Golden Stone Border-30132,302-30132,code128,Senorita Trends,ST-302,pc,pc,pc,25,65,2,No Tax,,,,,,,,,,
Green/Golden Net Border-30134,302-30134,code128,Senorita Trends,ST-302,pc,pc,pc,25,65,2,No Tax,,,,,,,,,,
Cream/Golden Border-30135,302-30135,code128,Senorita Trends,ST-302,pc,pc,pc,25,65,2,No Tax,,,,,,,,,,
Brownish Pink - 30066,302-30066,code128,Senorita Trends,ST-302,pc,pc,pc,25,65,2,No Tax,,,,,,,,,,
Grey Dotted Wave-30136,302-30136,code128,Senorita Trends,ST-302,pc,pc,pc,25,65,2,No Tax,,,,,,,,,,
