Name,Code,Barcode Symbology,Brand,Category Code,Unit Code,Sale Unit Code, Purchase Unit Code,Cost,Price,Alert Quantity, Tax Rate Name,Tax Method,Image,Subcategory Code,Product Variants Separated by |,Custom Field 1,Custom Field 2,Custom Field 3,Custom Field 4,Custom Field 5,Custom Field 6
White Ribbon Flower Tutu,KF-TUTU-5001,code128,KiddiFits,KF-105,pc,pc,pc,50,94,2,No Tax,exclusive,,,,CF1,CF2,CF3,CF4,CF5,CF6
3 Chest Flower gold tutu,KF-TUTU-5002,code128,KiddiFits,KF-105,pc,pc,pc,50,94,2,No Tax,exclusive,,,,CF1,CF2,CF3,CF4,CF5,CF6
White purple hawayin theme,KF-TUTU-5003,code128,KiddiFits,KF-105,pc,pc,pc,50,189,2,No Tax,exclusive,,,,CF1,CF2,CF3,CF4,CF5,CF6
YELLOW TUTU DRESS,KF-TUTU-5004,code128,KiddiFits,KF-105,pc,pc,pc,50,149,2,No Tax,exclusive,,,,CF1,CF2,CF3,CF4,CF5,CF6
PONY TUTU BIG FLOWERS,KF-TUTU-5005,code128,KiddiFits,KF-105,pc,pc,pc,50,169,2,No Tax,exclusive,,,,CF1,CF2,CF3,CF4,CF5,CF6
AQUA BLUE PINK FLOWER,KF-TUTU-5006,code128,KiddiFits,KF-105,pc,pc,pc,55,169,2,No Tax,exclusive,,,,CF1,CF2,CF3,CF4,CF5,CF6
3 Flower tutu - Red,KF-TUTU-5007,code128,KiddiFits,KF-105,pc,pc,pc,50,169,2,No Tax,exclusive,,,,CF1,CF2,CF3,CF4,CF5,CF6
Peacock Tutu Dress,KF-TUTU-5008,code128,KiddiFits,KF-105,pc,pc,pc,65,189,2,No Tax,exclusive,,,,CF1,CF2,CF3,CF4,CF5,CF6
Orange Blue  tutu old ,KF-TUTU-5009,code128,KiddiFits,KF-105,pc,pc,pc,40,94,2,No Tax,exclusive,,,,CF1,CF2,CF3,CF4,CF5,CF6
Pink Glitter tutu,KF-TUTU-5010,code128,KiddiFits,KF-105,pc,pc,pc,40,94,2,No Tax,exclusive,,,,CF1,CF2,CF3,CF4,CF5,CF6
Black classic tutu,KF-TUTU-5011,code128,KiddiFits,KF-105,pc,pc,pc,40,94,2,No Tax,exclusive,,,,CF1,CF2,CF3,CF4,CF5,CF6
3 flower tutu - Pink,KF-TUTU-5012,code128,KiddiFits,KF-105,pc,pc,pc,50,169,2,No Tax,exclusive,,,,CF1,CF2,CF3,CF4,CF5,CF6
Purple tutu pink flower ,KF-TUTU-5013,code128,KiddiFits,KF-105,pc,pc,pc,50,169,2,No Tax,exclusive,,,,CF1,CF2,CF3,CF4,CF5,CF6
Green Peacock Tutu ,KF-TUTU-5014,code128,KiddiFits,KF-105,pc,pc,pc,65,189,2,No Tax,exclusive,,,,CF1,CF2,CF3,CF4,CF5,CF6
Purple Rainbow Tutu Dress,KF-TUTU-5015,code128,KiddiFits,KF-105,pc,pc,pc,50,169,2,No Tax,exclusive,,,,CF1,CF2,CF3,CF4,CF5,CF6
Pink Rainbow Tutu Dress ,KF-TUTU-5016,code128,KiddiFits,KF-105,pc,pc,pc,50,169,2,No Tax,exclusive,,,,CF1,CF2,CF3,CF4,CF5,CF6
