"Product Code","Product Name",Variant,Expected,Counted
101-1065,"Long Sleeve With rounded neck",,0.0000,
101-1066,"Pink Flower Chest",,4.0000,
101-1067,"Red Flower Pearl Chest",,1.0000,
101-1068,"ARAB DRESS",,5.0000,
101-1069,"RAINBOW SUMMER DRESS",,3.0000,
101-1070,"PEACH & WHITE PRINTED FLOWER DRESS",,1.0000,
101-1071,"RED COLOR DRESS W/ GOLD SEQUENCE COLAR",,3.0000,
101-1072,"MICKEY MOUSE COTTON DRESS",,3.0000,
101-1073,"Cotton Bud Onesie Dress",,3.0000,
101-1079,"Summer Dress with Doll Design",,0.0000,
101-1114,"Farasha Arabian Princess Gown",,0.0000,
102-2004,"Sofia Satin Gown - Round cuts",,0.0000,
102-2031,"Elsa Tutu Gown L.S.","8-9 years",3.0000,
102-2031,"Elsa Tutu Gown L.S.","10-11 years",3.0000,
102-2032,"Princess Belle",,5.0000,
102-2033,"Sofia with Sequin Skirt",,3.0000,
103-3001,"Baby Rosetto Onesie - Pink",,14.0000,
103-3002,"Baby Rosetto Onesie - Purple",,1.0000,
103-3003,"Baby Rosetto Onesie - Red",,0.0000,
103-3004,"Baby Rosetto Onesie - Hot Pink",,0.0000,
103-3005,"Baby Rosetto Onesie - White",,0.0000,
103-3006,"Baby Rosetto Onesie - Blue",,1.0000,
103-3007,"Baby Rosetto Onesie - Yellow",,0.0000,
103-3008,"Baby IceCream Onesie - White",,15.0000,
103-3009,"Baby Cupcake Onesie - Pink",,15.0000,
103-3010,"Baby Super Girl Onesie",,0.0000,
104-4001,"White Lace Skin Flower",,1.0000,
104-4002,"White Satin Back cape",,1.0000,
104-4003,"Satin Peach A-Line",,2.0000,
104-4004,"Raw Satin Purple Gown",,2.0000,
104-4005,"BEIGE SATIN Long Back",,0.0000,
104-4006,"Peach L.Sleevs Stripe Shldr",,2.0000,
104-4007,"Red Lace white Satin",,5.0000,
104-4008,"purple/Purple Perals Chest",,5.0000,
104-4009,"Baby Pink/Pink Pearls Chest Sleeves",,5.0000,
104-4010,"Purple Flowers Printed/Sleveless",,5.0000,
104-4011,"PeachPearls/Bow Belt Sleevless",,5.0000,
104-4012,"White Printed Flower chest/White Pearls Border",,5.0000,
104-4013,"White Neckless/White Pearls Chest",,5.0000,
104-4014,"Peach Neckless/Peach Pearls Shoulders",,5.0000,
104-4015,"White/White Bow Pearls Belt",,5.0000,
105-5001,"White Ribbon Flower Tutu",,5.0000,
105-5002,"3 Chest Flower gold tutu",,1.0000,
105-5003,"White purple hawayin theme",,6.0000,
105-5004,"YELLOW TUTU DRESS",,0.0000,
105-5005,"PONY TUTU BIG FLOWERS",,0.0000,
105-5006,"AQUA BLUE PINK FLOWER",,12.0000,
105-5007,"3 Flower tutu - Red",,12.0000,
105-5008,"Peacock Tutu Dress",,2.0000,
105-5009,"Orange Blue  tutu old",,5.0000,
105-5010,"Pink Glitter tutu",,4.0000,
105-5011,"Black classic tutu",,2.0000,
105-5012,"3 flower tutu - Pink",,3.0000,
105-5013,"Purple tutu pink flower",,1.0000,
105-5014,"Green Peacock Tutu",,12.0000,
105-5015,"Purple Rainbow Tutu Dress",,4.0000,
105-5016,"Pink Rainbow Tutu Dress",,11.0000,
105-5017,"Purple/Purple Flowers Chest",,5.0000,
107-7041,"Petti Skirt- Blue & Green Ruffle",,2.0000,
107-7045,"Petti Skirt -  Lime Green",,8.0000,
107-7063,"Petti Skirt- Pink with Heart",,1.0000,
107-7089,"Petti Skirt- Golden Yellow",,1.0000,
107-7092,"Petti Skirt- Lime Green & Pink Ruffle",,1.0000,
107-7095,"Petti Skirt- Orange & Blue Ruffle",,1.0000,
107-7140,"Petti Skirt- Blue with Red Chevron",,2.0000,
107-7301,"Petti Skirt- UAE Color",,1.0000,
107-7302,"Petti Skirt- X-mass Color",,3.0000,
108-8001,"Cape Shoulder Bellet",,4.0000,
108-8002,"Blue  Glitters Neck Ballet",,1.0000,
108-8003,"white Bellet Gold neck cape",,4.0000,
108-8004,"white Bellet Silver neck cape",,3.0000,
108-8005,"Pink Bellet Gold neck cape",,12.0000,
108-8006,"Elsa Bellet Glitter",,7.0000,
108-8007,"Jazz Ballet Red Neck Stone",,2.0000,
108-8008,"Black Silver Ballet",,0.0000,
108-8009,"Jazz Ballet Dance Ribbon",,1.0000,
108-8010,"Pink Ballet Dancing Girl",,0.0000,
108-8011,"Pink Ballet Gold Bow",,9.0000,
108-8012,"Pink Black Crown Ballet",,3.0000,
108-8013,"Princess Ballet pink Puple",,1.0000,
108-8014,"Next Stock Yellow Bellet",,11.0000,
108-8015,"Half Show Cap Slv Ribbon",,7.0000,
108-8016,"Stripe Embroidered Pink Ballet",,12.0000,
108-8017,"Neck Flowers White Ballet",,9.0000,
108-8018,"Neck Stone Frill Slvs Ballet",,2.0000,
108-8019,Leotards,,7.0000,
109-9001,"RUFFLE TOP",,10.0000,
109-9002,"NET FLOWER DESIGN LONGSLEEVE TOP",,2.0000,
109-9003,"Cotton Tops",,5.0000,
109-9005,"Pink Cup Cake",,14.0000,
109-9006,"Grey Dear",,2.0000,
109-9007,"Sky Blue Good Night",,1.0000,
109-9008,"White Love Gold",,4.0000,
109-9009,"Solid Pink Red Heart",,1.0000,
109-9011,"Pink Frozen",,1.0000,
110-1101,"GRAY LACE FLOWER",,0.0000,
110-1111,"PINK & PURPLE 2 SET WINTER DRESS",,0.0000,
111-1024,"BOW TIE",,0.0000,
11534516,"Chest Dropping Floral Net Gown - Skin",,10.0000,
11534517,"Chest Dropping Floral Net Gown - Purple",,7.0000,
11534518,"Chest Dropping Lace patch Gown with Sequins - Marron",,8.0000,
11534519,"Chest Dropping Lace patch Gown with Sequins - Purple",,7.0000,
11534520,"Chest Dropping Floral Gown with Pearl - Peach",,11.0000,
11534521,"Chest Floral Gown with naken soulders - Purple",,8.0000,
11534522,"Chest Floral Gown with naken soulders  - Blue",,11.0000,
11534523,"Vintage Printed Chiffon, Self Block",,8.0000,
11534524,"Dropping lace patch, Cape - Pink",,10.0000,
11534525,"top Dropping lace patch, Cape- White",,6.0000,
11534526,"Tinker bell Satin Gown",,9.0000,
11534527,"Embelished Chest Gown with pearls",,9.0000,
11534528,"Embroidered Net Gowns - Purple",,6.0000,
11534529,"Embroidered Net Gowns - Blue",,8.0000,
11534530,"Dropping Ribbon Flower Net Gowns - Blue",,11.0000,
11534531,"Dropping Ribbon Flower- skin",,0.0000,
11534532,"Dropping Ribbon Flower - Pink",,6.0000,
11534533,"Dropping Ribbon Flower - Red",,11.0000,
11534535,"Embellished, stone belt- Pink",,6.0000,
11534536,"Embellished top, stone belt - skin",,9.0000,
11534537,"AutumnTree with Chiffon Flowers",,6.0000,
11534538,"Half layered Sequin gown",,8.0000,
11534539,"lace patch Flower,pearls - Red",,10.0000,
11534540,"lace patch Flower ,pearls - blue",,11.0000,
11534541,"lace patch Flower ,pearls - pink",,12.0000,
11534542,"Glitter Chest, L.Back - Blue",,5.0000,
11534543,"Lace Toddler, L.back, stone -Blue",,2.0000,
11534544,"Lace Toddler, L.back, stone  - RED",,5.0000,
11534545,"Toddler, Lace, L.Back Ribbon- H.Pink",,8.0000,
11534546,"Toddler L.back, Rbn, White",,7.0000,
11534547,"Thread Embroidered, pearl brooj - Blue",,0.0000,
11534548,"Cut Glitter Chest with Front Bow - Pink",,5.0000,
11534549,"Cut Glitter Chest with Front Bow - RED",,10.0000,
11534550,"Lace line Ribbon, toddler- Blue",,5.0000,
11534551,"Lace line Ribbon, toddler- SGreen",,5.0000,
11534552,"Toddler, lace, RBN Knot, Cream",,8.0000,
11534553,"Toddler, lace, RBN Knot, Maroon",,5.0000,
11534555,"beads chest,3 ribbon edging, Red",,8.0000,
11534556,"Block plate, Sequin patch- purple",,19.0000,
11534557,"Block plate, Sequin patch - Blue",,7.0000,
11534558,"Elsa Gown with Small cape",,10.0000,
11534559,"Repunzel Satin Gown",,4.0000,
11534560,"Princess Anna Frozen Sisters Gown",,10.0000,
11534561,"Elsa Gown with long cape Glitter Sleeves",,5.0000,
11534562," Princess Aurora Sleeping Beauty Gown",,10.0000,
11534563,"Little Poney dress with Ribbon lines",,0.0000,
11534564,"Little Ponney, Chiffon layers",,5.0000,
17135465,"Polka Printed Satin - Blue",,6.0000,
17135467,"Lace Flower Patch & pearls - Beige",,0.0000,
17135468,"Thread Embroidered, Pearl Brooj - Blue",,0.0000,
201-2001,"Shoe Tshirt Set",,5.0000,
201-2002,"Lining Tshirt Set",,4.0000,
201-2003,"Zebra Shirt Set",,2.0000,
201-2004,"Dolphin Shirt Set",,1.0000,
201-2005,"Green Shirt Set",,1.0000,
201-2006,"Digital Lining Shirt Set",,3.0000,
201-2007,"BlueRed long pants",,3.0000,
201-2008,"US Flag Shirt Set",,3.0000,
201-2010,"SpiderMan Tshirt",,4.0000,
201-2011,"RedStripes Long Pants",,3.0000,
201-2012,"Black Shoe Tshirt Set",,1.0000,
201-2013,"Floral Printed Long Pants",,3.0000,
201-2014,"Chek Cat Tshrt Set",,4.0000,
201-2015,"Wang Red Tshrt Set",,3.0000,
201-2016,"Grey Face Blck Tshrt Set",,2.0000,
202-2017,"Solid Camel 3 Pcs Suit",,1.0000,
202-2018,"Solid Black 3 Pcs Suit",,3.0000,
202-2019,"SmallBox Brown Velvet 3 Pcs Suit",,11.0000,
202-2020,"BigBox Brown Velvet 3 Pcs Suit",,9.0000,
202-2021,"Pin Dotted Grey 3 Pcs Suit",,5.0000,
202-2022,"Solid Grey 3 Pcs Suit",,2.0000,
202-2024,"SmallBox Camel Velvet 3 Pcs Suit",,3.0000,
202-2049,"Solid Cream",,7.0000,
202-2050,"Grey White Lines",,3.0000,
202-2051,"Light White Box",,3.0000,
203-2025,"Batman Black Muscle Costume",,6.0000,
203-2026,"BATMAN GRAY",,13.0000,
203-2027,"Superman Muscle Costume",,5.0000,
203-2029,"ROBIN HOOD",,3.0000,
203-2030,TRANSFORMER,,4.0000,
203-2031,"Iron Man Muscle Costume",,1.0000,
203-2032,"SPIDERMAN BLACK",,5.0000,
203-2033,HULK,,3.0000,
203-2034,VOLT,,2.0000,
203-2035,"Captain America Muscle Costume",,6.0000,
203-2036,INCREDIBLE,,1.0000,
204-2037,"Blue Blazer (FORMAL)",,2.0000,
204-2038,"Yellow Balzer (FORMAL)",,2.0000,
204-2040,"superman blue",,7.0000,
204-2041,"spiderman red",,1.0000,
204-2042,"spiderman black",,2.0000,
204-2043,"olaf hoddie blue",,5.0000,
204-2044,"olaf zipper",,3.0000,
204-2045,"olaf bike",,8.0000,
204-2046,"macquinne zipper",,6.0000,
204-2047,"raindeer zipper",,9.0000,
204-2048,"olaf hoddie yellow",,4.0000,
205-2063,"Wolf Blue",,0.0000,
301-30002,"Ajrak - 30002",,3.0000,
301-30003,"Mustard Base White Square - 30003",,7.0000,
301-30004,"Black & White Stripesp - 30004",,7.0000,
301-30005,"Army- 30005",,1.0000,
301-30006,"Sea Blue Base Red Flowers - 30006",,3.0000,
301-30007,"Grey Base/Yellow White-30007",,7.0000,
301-30008,"Black Dotted -30008",,11.0000,
301-30009,"Solid Brown/White Lining- 30009",,10.0000,
301-30010,"White Base Flowers- 30010",,1.0000,
301-30011,"peach/Grey Square- 30011",,6.0000,
301-30012,"White Base/Pink Peach- 30012",,11.0000,
301-30013,"White Base/Blue Grey-30013",,7.0000,
301-30015,"Pink Border/Flowers- 30015",,2.0000,
301-30016,"Purple Border Pink Flowers- 30016",,10.0000,
301-30017,"Black Border/Peach and Yellow-30017",,1.0000,
301-30018,"Navy Blue Border- 30018",,4.0000,
301-30019,"Blue Circle Stars- 30019",,6.0000,
301-30021,"Peach Base Red Small Flowers- 30021",,4.0000,
301-30023,"Peach Blue Stripes-30023",,6.0000,
301-30024,"Blue Stripes/ White Flowers-30024",,3.0000,
301-30025,"Peacock- 30025",,1.0000,
301-30027,"Stripes Border- 30027",,1.0000,
301-30028,"Yellow Flowers/Circle-30028",,0.0000,
301-30030,"Blood Red/ Black&White Stripe-30030",,14.0000,
301-30031,"Golden Flowers Border- 30031",,6.0000,
301-30032,"Blue Border/White Flowers-30032",,4.0000,
301-30033,"Green Base Red Flowers-30033",,8.0000,
301-30034,"Solid Peach/White Lining-30034",,7.0000,
301-30035,"White Base/ Geen,Grey-30035",,7.0000,
301-30036,"Blue Borders White Flowers-30036",,2.0000,
301-30037,"Multi Lining Bordes/Blue-30037",,2.0000,
301-30039,"Pink & Blue Flowers-30039",,10.0000,
301-30041,"Black & White Shapes-30041",,7.0000,
301-30043,"Orange Sliced Flowers-30043",,7.0000,
301-30044,"Blue Circle/White Triangels-30044",,8.0000,
301-30045,"Flowers Red White Blue-30045",,7.0000,
301-30046,"Small flowers/ Red Lines- 30046",,0.0000,
301-30047,"Orange Base Blue Flowers-30047",,8.0000,
301-30048,"Grey Waves- 30048",,10.0000,
301-30049,"Black & White Stripes-30049",,9.0000,
301-30051,"Blue Square Flowers-30051",,5.0000,
301-30053,"white Base/ Purple,Grey-30053",,6.0000,
301-30055,"Blue Flowers Pattern-30055",,3.0000,
301-30056,"Double Prnt Red/Blue-30056",,7.0000,
301-30137,"Blue Border/Ajrak- 30137",,0.0000,
301-30138,"Black Gold Stripes Border-30138",,1.0000,
301-30139,"Black Red White Stripes-30139",,16.0000,
301-30140,"White Base Ajrak-30140",,8.0000,
301-30141,"Multi Color Stripes",,3.0000,
302-30065,"Peach Base/Dotted Peach-30065",,5.0000,
302-30066,"Brownish Pink - 30066",,5.0000,
302-30067,"Lime Base/ Peach Dotted-30067",,1.0000,
302-30070,"Brown Square/ Silver Pearl-30070",,0.0000,
302-30071,"Light Pink Square/Silver Pearl-30071",,5.0000,
302-30074,"Purple Base/Peach Dotted-30074",,0.0000,
302-30075,"Peach Base/3 Hearts-30075",,1.0000,
302-30076,"Pink Base/Peach Dotted-30076",,1.0000,
302-30077,"Lime Base/3 Hearts-30077",,0.0000,
302-30078,"Light Grey Square/ Pearls-30078",,1.0000,
302-30079,"Green Base/ 3 Hearts-30079",,0.0000,
302-30080,"Light Pink Dotted.wave-30080",,2.0000,
302-30081,"Peach Dotted Wave-30081",,0.0000,
302-30084,"Greyish Green Circle/ Net Border-300084",,0.0000,
302-30131,"Black/Golden Heart-30131",,0.0000,
302-30132,"Grey/Golden Stone Border-30132",,0.0000,
302-30134,"Green/Golden Net Border-30134",,1.0000,
302-30135,"Cream/Golden Border-30135",,5.0000,
302-30136,"Grey Dotted Wave-30136",,6.0000,
304-30115,"Orange/Multi Color Circle",,0.0000,
304-30116,"Pink/Multi Color Cirlce",,1.0000,
304-30117,"Blue/Pink Blue Flowers-30117",,1.0000,
304-30118,"Dark Maroon/Net Blue Border-30118",,0.0000,
304-30119,"Yellow/Net Blue Borde-30119",,1.0000,
304-30120,"Green/ Multi Color Circles-30120",,1.0000,
304-30121,"Solid Pink/Blue Flowers-30121",,0.0000,
304-30122,"Light Green/Net Green Flower-30122",,1.0000,
304-30123,"Pink/Net Green Flower-30123",,1.0000,
304-30124,"Peach/Net Green Flower-30124",,0.0000,
304-30125,"Aqua Dark/Net Aqua Flowers-30125",,1.0000,
304-30126,"Light Purple/Net Aqua Flowers-30126",,0.0000,
304-30127,"Pink/ Black Flowers-30127",,1.0000,
304-30128,"Purple/White Flower-30128",,1.0000,
304-30129,"Baby Pink/White Flower-30129",,1.0000,
305-30057,Brown-30057,,1.0000,
305-30058,"Light Pink-300358",,2.0000,
305-30059,"Dark Blue-30059",,1.0000,
305-30060,Camel-30060,,1.0000,
305-30062,"Sky Blue-30062",,1.0000,
306-30142,"Solid Dark Grey",,6.0000,
306-30143,"Solid Black",,0.0000,
306-30144,"Solid Blue",,5.0000,
306-30145,"Solid Cream",,8.0000,
306-30146,"Solid Dark Brown",,3.0000,
306-30147,"Solid Grey",,6.0000,
306-30148,"Solid Camel",,5.0000,
306-30149,"Solid Maroon",,4.0000,
306-30150,"Solid Navy Blue",,6.0000,
306-30151,"Solid Baby Pink",,3.0000,
306-30152,"Solid Royal Blue",,1.0000,
306-30153,"Solid White",,1.0000,
311-30109,"Maroon/Yellow Blue Branch-30109",,5.0000,
311-30110,"Skin/Green Purple Branch-30110",,5.0000,
311-30111,"Blue/Yellow Red Branch-30111",,3.0000,
311-30112,"Pink/White Cheeta Print-30112",,3.0000,
311-30113,"Black/Yellow Pink Branch-30113",,1.0000,
311-30114,"Red/Yellow Green Branch-30114",,4.0000,
312-30089,"Grey/Pink Butterflies-30089",,3.0000,
312-30090,"White/Pink Butterflies Flowers-30090",,1.0000,
312-30091,"Purple Birds Branches-30091",,2.0000,
312-30092,"Aqua Printed-30092",,2.0000,
312-30093,"White Music Notes-30093",,6.0000,
312-30094,"Light Dark Green/Purple Flowers-30094",,3.0000,
312-30095,"Green City-30095",,3.0000,
312-30096,"Light Dark Pink/Orange Flowers-30096",,4.0000,
312-30097,"Pink/Lime Butterflies-30097",,5.0000,
312-30098,"Peach/ Lime Butteflies-30098",,1.0000,
312-30099,"Peach/Black Print-30099",,3.0000,
312-30100,"AquaBlue/Golden Leave-30100",,4.0000,
312-30101,"Aqua Green/Blue Flowers-30101",,5.0000,
312-30102,"Blue City-30102",,4.0000,
312-30103,"Aqua White/Blue Pink Flowers-30103",,2.0000,
312-30104,"Blue Printed-30104",,5.0000,
312-30105,"Yellow Red RosesBlue Border-30105",,0.0000,
312-30106,"3Shade/Yellow Peach Purple-30106",,3.0000,
312-30107,"Pink City-30107",,3.0000,
312-30108,"Peach Music Notes-30108",,2.0000,
KF-Costm-2002,"Arora WITH WHITE COLAR",,1.0000,
KF-Costm-2003,"Repunzel TUTU DRESS",,3.0000,
KF-Costm-2005,"Princess Cinderella Gown",,0.0000,
KF-Costm-2006,"CINDERELLA- Gown Pic",,3.0000,
KF-Costm-2007,"Princess Snow White Gown",,2.0000,
KF-Costm-2008,"MERMAID BABY DRESS",,5.0000,
KF-Costm-2009,"MERMAID DRESS",,3.0000,
KF-Costm-2010,"MERMAID (GREEN&PURPLE COLOR)",,4.0000,
KF-Costm-2011,"Mermaid Tutu dress",,3.0000,
KF-Costm-2012,"SOFIAGown WITH GLITTERS",,15.0000,
KF-Costm-2013,"Princess Sofia the First Satin Gown",,9.0000,
KF-Costm-2014,"Sofia Tutu Dress",,8.0000,
KF-Costm-2015,"Mickey Mouse tutu",,4.0000,
KF-Costm-2016,"Minnie Mouse Tutu",,6.0000,
KF-Costm-2017,"Pumpkin Tutu",,1.0000,
KF-Costm-2018,"TinkerBell Tutu with Wings",,1.0000,
KF-Costm-2019,"Pink Fairy Tutu with wings",,6.0000,
KF-Costm-2020,"Cape Elsa",,3.0000,
KF-Costm-2022,"American Costume tutu",,2.0000,
KF-Costm-2023,"Elsa Real Gown",,9.0000,
KF-Costm-2024,"ANNA TUTU DRESS",,5.0000,
KF-Costm-2025,"ELSA BABY DRESS",,7.0000,
KF-Costm-2026,"OLAF TUTU DRESS",,11.0000,
KF-Costm-2027,"SUPER GIRL TUTU DRESS",,8.0000,
KF-Costm-2028,"BATGIRL TUTU DRESS",,7.0000,
KF-Costm-2029,"Hello Kitty Tutu Dress",,7.0000,
KF-Costm-2030,"Little Pony Tutu Dress",,5.0000,
KF-FRK-1040,"RED PARTY DRESS W/ BEADINGS AT CHEST AND RIBBON",,3.0000,
KF-FRK-1041,"GLITTER Chest WITH BOW - Pink",,6.0000,
KF-FRK-1042,"GLITTER Chest WITH BOW - Blue",,5.0000,
KF-FRK-1043,"GLITTER Chest WITH BOW - Beige",,2.0000,
KF-FRK-1044,"RED PARTY DRESS WITH SEQUENCE AND FLOWER",,2.0000,
KF-FRK-1045,"Baby Gown with Small beading at chest - Hotpink",,3.0000,
KF-FRK-1046,"Baby Gown with Small beading at chest - pink",,0.0000,
KF-FRK-1047,"Baby Gown with Small beading at chest - Peach",,0.0000,
KF-FRK-1049,"Toddler Embelished Organza gown - Green",,1.0000,
KF-FRK-1050,"Toddler Lace Gown - Purple",,4.0000,
KF-FRK-1053,"Lace Flower, Stone Wline - Hpink",,0.0000,
KF-FRK-1054,"Lace Flower Stone Wline - Red",,1.0000,
KF-FRK-1056,"White Frock with Pink big Flowers at chest",,1.0000,
KF-FRK-1058,"Jacuard Printed Princess Gown with pearl waist",,3.0000,
KF-FRK-1059,"Printed Bird Gown",,1.0000,
KF-FRK-1060,"Naked Chest Chiffon - Pink",,6.0000,
KF-FRK-1061,"Layered Chifoon Gown with chest patch - white",,3.0000,
KF-FRK-1062,"Naked Chest Chiffon - Skin",,3.0000,
KF-FRK-1063,"Half show Lace Chest with beading, seqins - White",,2.0000,
KF-FRK-1064,"Half show Lace Chest with beading, seqins - Pink",,2.0000,
KP-GPDB06,"Gold Dot Bloomer Set - Black",,4.0000,
KP-GPDB08,"Gold Dot Bloomer Set - Pink",,2.0000,
KP-GPDB10,"Gold Dot Bloomer Set - Purple",,2.0000,
KP-GSPD015,"Vintage Printed Summer - Peach",,0.0000,
KP-GSPD016,"Vintage Printed Summer - Pink",,0.0000,
KP-GSPD017,"Vintage Printed Summer - Hot Pink",,3.0000,
KP-PETS009,"Baby Pink Petti Skirt - Solid",,17.0000,
KP-PETS010,"B.Pink Skirt, Rainbow Ruffle",,5.0000,
KP-PETS068,"Red Petti Skirt - Solid",,10.0000,
KP-PETS073,"light Purple Pettiskirt - Solid",,4.0000,
KP-PETS148,"Ash Grey Petti Skirt - Solid",,6.0000,
KP-PETS169,"Peach Petti Skirt - Solid",,10.0000,
KP-PETS177,"Skin Petti Tutu Skirt - Solid",,5.0000,
KP-PETS180,"Pastel Pink Petti Skirt - Solid",,5.0000,
KP-POMP02,"PomPom Jumpsuit - L.Blue",,0.0000,
KP-POMP05,"PomPom Jumpsuit - Black",,2.0000,
KP-POMP06,"PomPom Jumpsuit - Pink",,3.0000,
KP-POPS05,"PomPom PettiSet",,3.0000,
KP-POPS06,"PomPom PettiSet",,2.0000,
KP-POPS13,"PomPom PettiSet",,3.0000,
KP-POPS14,"PomPom PettiSet - Gold Dots",,3.0000,
