"Product Code","Product Name",Variant,Expected,Counted
103-3001,"Baby Rosetto Onesie - Pink",,7.0000,
103-3002,"Baby Rosetto Onesie - Purple",,0.0000,
103-3003,"Baby Rosetto Onesie - Red",,0.0000,
103-3004,"Baby Rosetto Onesie - Hot Pink",,0.0000,
103-3005,"Baby Rosetto Onesie - White",,0.0000,
103-3006,"Baby Rosetto Onesie - Blue",,0.0000,
103-3007,"Baby Rosetto Onesie - Yellow",,0.0000,
103-3008,"Baby IceCream Onesie - White",,5.0000,
103-3009,"Baby Cupcake Onesie - Pink",,0.0000,
103-3010,"Baby Super Girl Onesie",,0.0000,
11534543,"Lace Toddler, L.back, stone -Blue",,5.0000,
11534544,"Lace Toddler, L.back, stone  - RED",,5.0000,
11534550,"Lace line Ribbon, toddler- Blue",,5.0000,
11534551,"Lace line Ribbon, toddler- SGreen",,5.0000,
11534552,"Toddler, lace, RBN Knot, Cream",,5.0000,
11534553,"Toddler, lace, RBN Knot, Maroon",,5.0000,
