Product Code,Product Name,Variant,Expected,Counted
102-2001,Elsa Tutu Gown,2-3 years,5,4
102-2001,Elsa Tutu Gown,4-5 years,5,4
102-2001,Elsa Tutu Gown,6-7 years,5,5
102-2001,Elsa Tutu Gown,8-9 years,3,5
102-2001,Elsa Tutu Gown,10-11 years,3,3
102-2031,Elsa Tutu Gown L.S.,8-9 years,3,3
102-2031,Elsa Tutu Gown L.S.,10-11 years,3,3
103-3001,Baby Rosetto Onesie - Pink,,7,0
103-3002,Baby Rosetto Onesie - Purple,,0,2
103-3003,Baby Rosetto Onesie - Red,,0,1
103-3004,Baby Rosetto Onesie - Hot Pink,,0,0
103-3005,Baby Rosetto Onesie - White,,0,0
103-3006,Baby Rosetto Onesie - Blue,,0,1
103-3007,Baby Rosetto Onesie - Yellow,,0,0
103-3008,Baby IceCream Onesie - White,,5,11
103-3009,Baby Cupcake Onesie - Pink,,0,9
103-3010,Baby Super Girl Onesie,,0,0
104-4001,White Lace Skin Flower,,1,1
104-4002,White Satin Back cape,,1,1
104-4003,Satin Peach A-Line,,2,2
104-4004,Raw Satin Purple Gown,,1,0
104-4005,BEIGE SATIN Long Back,,0,0
104-4006,Peach L.Sleevs Stripe Shldr,,1,0
104-4007,Red Lace white Satin,,3,1
105-5001,White Ribbon Flower Tutu,,6,6
105-5002,3 Chest Flower gold tutu,,2,2
105-5003,White purple hawayin theme,,7,7
105-5004,YELLOW TUTU DRESS,,1,1
105-5005,PONY TUTU BIG FLOWERS,,0,0
105-5006,AQUA BLUE PINK FLOWER,,11,10
105-5007,3 Flower tutu - Red,,13,13
105-5008,Peacock Tutu Dress,,1,0
105-5009,Orange Blue  tutu old,,5,5
105-5010,Pink Glitter tutu,,4,4
105-5011,Black classic tutu,,2,2
105-5012,3 flower tutu - Pink,,2,1
105-5013,Purple tutu pink flower,,1,1
105-5014,Green Peacock Tutu,,5,0
105-5015,Purple Rainbow Tutu Dress,,2,0
105-5016,Pink Rainbow Tutu Dress,,4,1
108-8001,Cape Shoulder Bellet,,2,0
108-8002,Blue  Glitters Neck Ballet,,1,1
108-8003,white Bellet Gold neck cape,,4,4
108-8004,white Bellet Silver neck cape,,4,4
108-8005,Pink Bellet Gold neck cape,,7,1
108-8006,Elsa Bellet Glitter,,7,7
108-8007,Jazz Ballet Red Neck Stone,,1,0
108-8008,Black Silver Ballet,,0,0
108-8009,Jazz Ballet Dance Ribbon,,1,1
108-8010,Pink Ballet Dancing Girl,,0,0
108-8011,Pink Ballet Gold Bow,,5,1
108-8012,Pink Black Crown Ballet,,2,1
108-8013,Princess Ballet pink Puple,,1,1
108-8014,Next Stock Yellow Bellet,,8,5
108-8015,Half Show Cap Slv Ribbon,,6,5
108-8016,Stripe Embroidered Pink Ballet,,11,10
108-8017,Neck Flowers White Ballet,,6,3
108-8018,Neck Stone Frill Slvs Ballet,,1,0
11534516,Chest Dropping Floral Net Gown - Skin,,6,1
11534517,Chest Dropping Floral Net Gown - Purple,,6,5
11534518,Chest Dropping Lace patch Gown with Sequins - Marron,,6,4
11534519,Chest Dropping Lace patch Gown with Sequins - Purple,,6,5
11534520,Chest Dropping Floral Gown with Pearl - Peach,,6,1
11534521,Chest Floral Gown with naken soulders - Purple,,4,0
11534522,Chest Floral Gown with naken soulders  - Blue,,6,1
11534523,"Vintage Printed Chiffon, Self Block",,4,0
11534524,"Dropping lace patch, Cape - Pink",,6,2
11534526,Tinker bell Satin Gown,,6,3
11534527,Embelished Chest Gown with pearls,,6,3
11534529,Embroidered Net Gowns - Blue,,4,0
11534530,Dropping Ribbon Flower Net Gowns - Blue,,6,1
11534533,Dropping Ribbon Flower Net Gowns - Red,,0,6
11534536,"Embellished top, stone belt - skin",,6,3
11534538,Half layered Sequin gown,,6,4
11534539,"lace patch Flower,pearls - Red",,6,1
11534541,"lace patch Flower ,pearls - pink",,0,6
11534543,"Lace Toddler, L.back, stone -Blue",,5,3
11534546,"Toddler L.back, Rbn, White",,6,4
11534548,Cut Glitter Chest with Front Bow - Pink,,6,6
11534549,Cut Glitter Chest with Front Bow - RED,,6,2
11534552,"Toddler, lace, RBN Knot, Cream",,5,4
11534555,"beads chest,3 ribbon edging, Red",,6,4
11534556,"Block plate, Sequin patch- purple",,12,5
11534557,"Block plate, Sequin patch - Blue",,6,5
11534559,Repunzel Satin Gown,,5,5
11534560,Anna gown with Cape,,5,0
11534562,Auroura Sleeping Beauty Gown,,5,0
11534564,"Little Ponney, Chiffon layers",,5,5
KF-Costm-2002,Arora WITH WHITE COLAR,,1,1
KF-Costm-2003,Repunzel TUTU DRESS,,3,3
KF-Costm-2006,CINDERELLA- Gown Pic,,3,3
KF-Costm-2007,Snow White Gown,,1,0
KF-Costm-2008,MERMAID BABY DRESS,,5,5
KF-Costm-2009,MERMAID DRESS,,2,1
KF-Costm-2010,MERMAID (GREEN&PURPLE COLOR),,3,2
KF-Costm-2011,Mermaid Tutu dress,,3,3
KF-Costm-2012,SOFIAGown WITH GLITTERS,,12,9
KF-Costm-2013,SOFIA SATIN DRESS,,7,4
KF-Costm-2014,Sofia Tutu Dress,,8,6
KF-Costm-2015,Mickey Mouse tutu,,4,4
KF-Costm-2016,Minnie Mouse Tutu,,6,6
KF-Costm-2017,Pumpkin Tutu,,1,1
KF-Costm-2018,TinkerBell Tutu with Wings,,7,8
KF-Costm-2019,Pink Fairy Tutu with wings,,6,7
KF-Costm-2020,Cape Elsa,,2,1
KF-Costm-2022,American Costume tutu,,1,0
KF-Costm-2023,Elsa Real Gown,,5,4
KF-Costm-2024,ANNA TUTU DRESS,,5,5
KF-Costm-2025,ELSA BABY DRESS,,7,7
KF-Costm-2026,OLAF TUTU DRESS,,10,9
KF-Costm-2027,SUPER GIRL TUTU DRESS,,7,6
KF-Costm-2028,BATGIRL TUTU DRESS,,8,8
KF-Costm-2029,Hello Kitty Tutu Dress,,5,3
KF-Costm-2030,Little Pony Tutu Dress,,4,3
KF-FRK-1054,Lace Flower Stone Wline - Red,,0,1
KF-FRK-1063,"Half show Lace Chest with beading, seqins - White",,0,0
KP-PETS009,Baby Pink Petti Skirt - Solid,,10,3
KP-PETS010,"B.Pink Skirt, Rainbow Ruffle",,3,1
KP-PETS068,Red Petti Skirt - Solid,,5,0
KP-PETS073,light Purple Pettiskirt - Solid,,3,2
KP-PETS148,Ash Grey Petti Skirt - Solid,,5,4
KP-PETS169,Peach Petti Skirt - Solid,,5,0
KP-PETS177,Skin Petti Tutu Skirt - Solid,,5,4
KP-PETS180,Pastel Pink Petti Skirt - Solid,,3,1
