Name,Code,Barcode Symbology,Brand,Category Code,Unit Code,Sale Unit Code, Purchase Unit Code,Cost,Price,Alert Quantity, Tax Rate Name,Tax Method,Image,Subcategory Code,Product Variants Separated by |,Custom Field 1,Custom Field 2,Custom Field 3,Custom Field 4,Custom Field 5,Custom Field 6
PomPom PettiSet,KP-POPS01,code128,KiddiFits,KF-103,pc,pc,pc,27.12,79,2,No Tax,exclusive,,,,CF1,CF2,CF3,CF4,CF5,CF6
PomPom PettiSet,KP-POPS04,code128,KiddiFits,KF-103,pc,pc,pc,27.12,79,2,No Tax,exclusive,,,,CF1,CF2,CF3,CF4,CF5,CF6
PomPom PettiSet,KP-POPS05,code128,KiddiFits,KF-103,pc,pc,pc,27.12,79,2,No Tax,exclusive,,,,CF1,CF2,CF3,CF4,CF5,CF6
PomPom PettiSet,KP-POPS06,code128,KiddiFits,KF-103,pc,pc,pc,27.12,79,2,No Tax,exclusive,,,,CF1,CF2,CF3,CF4,CF5,CF6
PomPom PettiSet,KP-POPS13,code128,KiddiFits,KF-103,pc,pc,pc,30.00,79,2,No Tax,exclusive,,,,CF1,CF2,CF3,CF4,CF5,CF6
PomPom PettiSet - Gold Dots ,KP-POPS14,code128,KiddiFits,KF-103,pc,pc,pc,30.00,79,2,No Tax,exclusive,,,,CF1,CF2,CF3,CF4,CF5,CF6
PomPom PettiSet - Gold Dots ,KP-POPS17,code128,KiddiFits,KF-103,pc,pc,pc,30.00,79,2,No Tax,exclusive,,,,CF1,CF2,CF3,CF4,CF5,CF6
PomPom PettiSet - Gold Dots ,KP-POPS18,code128,KiddiFits,KF-103,pc,pc,pc,30.00,79,2,No Tax,exclusive,,,,CF1,CF2,CF3,CF4,CF5,CF6
PomPom PettiSet - Gold Dots ,KP-POPS20,code128,KiddiFits,KF-103,pc,pc,pc,30.00,79,2,No Tax,exclusive,,,,CF1,CF2,CF3,CF4,CF5,CF6
Vintage Printed Summer - Peach,KP-GSPD015,code128,KiddiFits,KF-101,pc,pc,pc, 25.53 ,79,2,No Tax,exclusive,,,,CF1,CF2,CF3,CF4,CF5,CF6
Vintage Printed Summer - Pink,KP-GSPD016,code128,KiddiFits,KF-101,pc,pc,pc, 25.53 ,79,2,No Tax,exclusive,,,,CF1,CF2,CF3,CF4,CF5,CF6
Vintage Printed Summer - Hot Pink,KP-GSPD017,code128,KiddiFits,KF-101,pc,pc,pc, 25.53 ,79,2,No Tax,exclusive,,,,CF1,CF2,CF3,CF4,CF5,CF6
Gold Dot Bloomer Set - Black ,KP-GPDB06,code128,KiddiFits,KF-103,pc,pc,pc, 25.00 ,74,2,No Tax,exclusive,,,,CF1,CF2,CF3,CF4,CF5,CF6
Gold Dot Bloomer Set - Pink,KP-GPDB08,code128,KiddiFits,KF-103,pc,pc,pc, 25.00 ,74,2,No Tax,exclusive,,,,CF1,CF2,CF3,CF4,CF5,CF6
Gold Dot Bloomer Set - Purple,KP-GPDB10,code128,KiddiFits,KF-103,pc,pc,pc, 25.00 ,74,2,No Tax,exclusive,,,,CF1,CF2,CF3,CF4,CF5,CF6
PomPom Jumpsuit - Hot pink,KP-POMP01,code128,KiddiFits,KF-103,pc,pc,pc, 21.00 ,69,2,No Tax,exclusive,,,,CF1,CF2,CF3,CF4,CF5,CF6
PomPom Jumpsuit - L.Blue,KP-POMP02,code128,KiddiFits,KF-103,pc,pc,pc, 21.00 ,69,2,No Tax,exclusive,,,,CF1,CF2,CF3,CF4,CF5,CF6
PomPom Jumpsuit - Peach,KP-POMP03,code128,KiddiFits,KF-103,pc,pc,pc, 21.00 ,69,2,No Tax,exclusive,,,,CF1,CF2,CF3,CF4,CF5,CF6
PomPom Jumpsuit - Black ,KP-POMP05,code128,KiddiFits,KF-103,pc,pc,pc, 21.00 ,69,2,No Tax,exclusive,,,,CF1,CF2,CF3,CF4,CF5,CF6
PomPom Jumpsuit - Pink,KP-POMP06,code128,KiddiFits,KF-103,pc,pc,pc, 21.00 ,69,2,No Tax,exclusive,,,,CF1,CF2,CF3,CF4,CF5,CF6
Sequin Bow - Head band ,KP-BBWH23,code128,KiddiFits,KF-103,pc,pc,pc, 5.00 ,25,2,No Tax,exclusive,,,,CF1,CF2,CF3,CF4,CF5,CF6
Sequin Bow - Head band ,KP-BBWH24,code128,KiddiFits,KF-103,pc,pc,pc, 5.00 ,25,2,No Tax,exclusive,,,,CF1,CF2,CF3,CF4,CF5,CF6
Sequin Bow - Head band ,KP-BBWH25,code128,KiddiFits,KF-103,pc,pc,pc, 5.00 ,25,2,No Tax,exclusive,,,,CF1,CF2,CF3,CF4,CF5,CF6
Sequin Bow - Head band ,KP-BBWH26,code128,KiddiFits,KF-103,pc,pc,pc, 5.00 ,25,2,No Tax,exclusive,,,,CF1,CF2,CF3,CF4,CF5,CF6
Sequin Knot Band - Gold ,KP-REH029,code128,KiddiFits,KF-103,pc,pc,pc, 4.00 ,25,2,No Tax,exclusive,,,,CF1,CF2,CF3,CF4,CF5,CF6
Sequin Knot Band - Green,KP-REH033,code128,KiddiFits,KF-103,pc,pc,pc, 4.00 ,25,2,No Tax,exclusive,,,,CF1,CF2,CF3,CF4,CF5,CF6
Sequin Knot Band - Blue ,KP-REH035,code128,KiddiFits,KF-103,pc,pc,pc, 4.00 ,25,2,No Tax,exclusive,,,,CF1,CF2,CF3,CF4,CF5,CF6
Sequin Knot Band - Pink ,KP-REH036,code128,KiddiFits,KF-103,pc,pc,pc, 4.00 ,25,2,No Tax,exclusive,,,,CF1,CF2,CF3,CF4,CF5,CF6
,,,,,,,,,,,,,,,,,,,,,
,,,,,,,,,,,,,,,,,,,,,
,,,,,,,,,,,,,,,,,,,,,
,,,,,,,,,,,,,,,,,,,,,
