Name,Code,Barcode Symbology,Brand,Category Code,Unit Code,Sale Unit Code, Purchase Unit Code,Cost,Price,Alert Quantity, Tax Rate Name,Tax Method,Image,Subcategory Code,Product Variants Separated by |,Custom Field 1,Custom Field 2,Custom Field 3,Custom Field 4,Custom Field 5,Custom Field 6
Solid Dark Grey,306-30142,code128,Senorita Trends,ST-306,pc,pc,pc,15,45,2,No Tax,,,,,,,,,,
Solid Black,306-30143,code128,Senorita Trends,ST-306,pc,pc,pc,15,45,2,No Tax,,,,,,,,,,
Solid Blue,306-30144,code128,Senorita Trends,ST-306,pc,pc,pc,15,45,2,No Tax,,,,,,,,,,
Solid Cream,306-30145,code128,Senorita Trends,ST-306,pc,pc,pc,15,45,2,No Tax,,,,,,,,,,
Solid Dark Brown,306-30146,code128,Senorita Trends,ST-306,pc,pc,pc,15,45,2,No Tax,,,,,,,,,,
Solid Grey,306-30147,code128,Senorita Trends,ST-306,pc,pc,pc,15,45,2,No Tax,,,,,,,,,,
Solid Camel,306-30148,code128,Senorita Trends,ST-306,pc,pc,pc,15,45,2,No Tax,,,,,,,,,,
Solid Maroon,306-30149,code128,Senorita Trends,ST-306,pc,pc,pc,15,45,2,No Tax,,,,,,,,,,
Solid Navy Blue,306-30150,code128,Senorita Trends,ST-306,pc,pc,pc,15,45,2,No Tax,,,,,,,,,,
Solid Baby Pink,306-30151,code128,Senorita Trends,ST-306,pc,pc,pc,15,45,2,No Tax,,,,,,,,,,
Solid Royal Blue,306-30152,code128,Senorita Trends,ST-306,pc,pc,pc,15,45,2,No Tax,,,,,,,,,,
Solid White,306-30153,code128,Senorita Trends,ST-306,pc,pc,pc,15,45,2,No Tax,,,,,,,,,,
