Name,Code,Barcode Symbology,Brand,Category Code,Unit Code,Sale Unit Code, Purchase Unit Code,Cost,Price,Alert Quantity, Tax Rate Name,Tax Method,Image,Subcategory Code,Product Variants Separated by |,Custom Field 1,Custom Field 2,Custom Field 3,Custom Field 4,Custom Field 5,Custom Field 6
Shoulder Floral Layred Turkish Gown - White,104-4021,code128,KiddiFits,KF-104,pc,pc,pc,102.75,268,2,No Tax,,,,,,,,,,
Shoulder Floral Layred Turkish Gown - Peach ,104-4022,code128,KiddiFits,KF-104,pc,pc,pc,102.75,268,2,No Tax,,,,,,,,,,
Lace Edging Turkish Gown with Back Heart,104-4023,code128,KiddiFits,KF-104,pc,pc,pc,108.85,289,2,No Tax,,,,,,,,,,
Raw Slik Sparkled  Turkish Gown,104-4024,code128,KiddiFits,KF-104,pc,pc,pc,105.88,264,2,No Tax,,,,,,,,,,
 Long back Turkish Gown with Pearls - Sea Green,104-4025,code128,KiddiFits,KF-104,pc,pc,pc,80.07,189,2,No Tax,,,,,,,,,,
 Long back Turkish Gown with Pearls - Move ,104-4026,code128,KiddiFits,KF-104,pc,pc,pc,80.07,189,2,No Tax,,,,,,,,,,
 Long Turkish Gown with Pearls - Move ,104-4027,code128,KiddiFits,KF-104,pc,pc,pc,80.07,229,2,No Tax,,,,,,,,,,
 Long Turkish Gown with Pearls - Peach ,104-4028,code128,KiddiFits,KF-104,pc,pc,pc,80.07,229,2,No Tax,,,,,,,,,,
Embroired Lace Turkish Gown - Melon Red,104-4029,code128,KiddiFits,KF-104,pc,pc,pc,63.96,168,2,No Tax,,,,,,,,,,
Embroired Lace Turkish Gown - Sea Blue,104-4030,code128,KiddiFits,KF-104,pc,pc,pc,63.96,168,2,No Tax,,,,,,,,,,
Bell Sleeved Turkish Gown - Pink Lace ,104-4031,code128,KiddiFits,KF-104,pc,pc,pc,102.75,289,2,No Tax,,,,,,,,,,
Frilled & Floral Turkish Gown - Whote,104-4032,code128,KiddiFits,KF-104,pc,pc,pc,98.53,289,2,No Tax,,,,,,,,,,
Pearled Turkish Gown - Pink ,104-4033,code128,KiddiFits,KF-104,pc,pc,pc,88.2,239,2,No Tax,,,,,,,,,,
Sparkled Turkish Gown with Back Bow - OffWhite,104-4034,code128,KiddiFits,KF-104,pc,pc,pc,80.85,219,2,No Tax,,,,,,,,,,
Sparkled Turkish Gown with Back Bow - Pink,104-4035,code128,KiddiFits,KF-104,pc,pc,pc,80.85,219,2,No Tax,,,,,,,,,,
Floral Turkish Gown - Melon Red,104-4036,code128,KiddiFits,KF-104,pc,pc,pc,86.48,195,2,No Tax,,,,,,,,,,
Floral Turkish Gown - Sea Grean,104-4037,code128,KiddiFits,KF-104,pc,pc,pc,86.48,195,2,No Tax,,,,,,,,,,
Long Back Turkish Gown Sequin Belt - Blue ,104-4038,code128,KiddiFits,KF-104,pc,pc,pc,79.44,195,2,No Tax,,,,,,,,,,
Long Back Turkish Gown Sequin Belt - Move Pink,104-4039,code128,KiddiFits,KF-104,pc,pc,pc,79.44,195,2,No Tax,,,,,,,,,,
Floral High Neck Turkish Gown - Blue,104-4040,code128,KiddiFits,KF-104,pc,pc,pc,79.44,195,2,No Tax,,,,,,,,,,
Sparkled Turkish Gown with Stars - White,104-4041,code128,KiddiFits,KF-104,pc,pc,pc,79.44,195,2,No Tax,,,,,,,,,,
Sparkled Turkish Gown with Stars - Peach,104-4042,code128,KiddiFits,KF-104,pc,pc,pc,79.44,195,2,No Tax,,,,,,,,,,
