Name,Code,Barcode Symbology,Brand,Category Code,Unit Code,Sale Unit Code, Purchase Unit Code,Cost,Price,Alert Quantity, Tax Rate Name,Tax Method,Image,Subcategory Code,Product Variants Separated by |,Custom Field 1,Custom Field 2,Custom Field 3,Custom Field 4,Custom Field 5,Custom Field 6
"White Base/Black Heart, Gold circle",KP-GPDB06,code128,KiddiFits,KF-103,pc,pc,pc,25,79,2,No Tax,,KP-GPDB06.jpg,,,,,,,,
White Base/Purple Heart Gold Circle,KP-GPDB10,code128,KiddiFits,KF-103,pc,pc,pc,25,79,2,No Tax,,KP-GPDB10.jpg,,,,,,,,
Black/Pink Rose,KP-GSPD017,code128,KiddiFits,KF-103,pc,pc,pc,30,94,2,No Tax,,KP-GSPD017.jpg,,,,,,,,
Aqua/Gold Circles,KP-POMP02,code128,KiddiFits,KF-103,pc,pc,pc,25,69,2,No Tax,,KP-POMP02.jpg,,,,,,,,
Black/Gold Cirlce,KP-POMP05,code128,KiddiFits,KF-103,pc,pc,pc,25,69,2,No Tax,,KP-POMP05.jpg,,,,,,,,
White Pink/White Circle,KP-POPS05,code128,KiddiFits,KF-103,pc,pc,pc,25,79,2,No Tax,,KP-POPS05.jpg,,,,,,,,
White Red/White Circle,KP-POPS06,code128,KiddiFits,KF-103,pc,pc,pc,25,79,2,No Tax,,KP-POPS06.jpg,,,,,,,,
Baby Pink/ Pink Roses,KP-POPS13,code128,KiddiFits,KF-103,pc,pc,pc,25,79,2,No Tax,,KP-POPS13.jpg,,,,,,,,
Peach/Gold Circle,KP-POPS14,code128,KiddiFits,KF-103,pc,pc,pc,25,79,2,No Tax,,KP-POPS14.jpg,,,,,,,,
Pink/Gold Circle,KP-POMP06,code128,KiddiFits,KF-103,pc,pc,pc,25,69,2,No Tax,,KP-POMP06.jpg,,,,,,,,
